Weather Forecasts Accuracy Analysis
…
The heatmap clearly shows that weather accuracy is particularly low in Winter. This can be attributed to different factors, such as pressure systems and movement of the Arctic Air. To learn more about the reasons, read this article written by David M. Ewalt for the Scientific American, focused on US weather forecasts, or this blog post from Severe Weather Europe for an in-depth worldwide perspective of the phenomenon.

Elevation Change

Elevation change refers to the difference in elevation between two points on Earth’s surface (typically relative to sea level). The dataset presents two columns related to elevation: elevation_change_four and elevation_change_eight. We decided to use the latter because it’s considered more reliable and accurate due to the incorporation of more data points, reducing directional bias and improving representation of local topography.

# A tibble: 158 × 4
   city           elevation elevation_error elevation_sd
   <chr>              <dbl>           <dbl>        <dbl>
 1 KEY_WEST            0.46          0.0622         1.08
 2 W_PALM_BEACH        1.65          0.618          1.36
 3 MIAMI_BEACH         2.55          0.518          1.05
 4 NEW_ORLEANS         2.82          0.529          1.48
 5 SAVANNAH            4.63          0.0863         1.50
 6 FARGO               5.49          0.0524         1.98
 7 LAKE_CHARLES        5.52          0.0958         1.57
 8 BROWNSVILLE         8.96          0.232          1.62
 9 DAYTONA_BEACH       9.68          0.132          1.40
10 CORPUS_CHRISTI     13.4           0.131          1.78
# ℹ 148 more rows
…
